<svg width="12" height="12" viewBox="0 0 12 12" fill="none" xmlns="http://www.w3.org/2000/svg">
<g clip-path="url(#clip0_10_861)">
<path d="M11.5713 0.428589L0.428467 11.5714" stroke="#121212" stroke-linecap="round" stroke-linejoin="round"/>
<path d="M0.428467 0.428589L11.5713 11.5714" stroke="#121212" stroke-linecap="round" stroke-linejoin="round"/>
</g>
<defs>
<clipPath id="clip0_10_861">
<rect width="12" height="12" fill="white"/>
</clipPath>
</defs>
</svg>
