<svg width="14" height="14" viewBox="0 0 14 14" fill="none" xmlns="http://www.w3.org/2000/svg">
<g clip-path="url(#clip0_10_1985)">
<path d="M7.25912 12.5348L4.79622 5.15267C4.66578 4.76171 5.0378 4.3897 5.42876 4.52013L12.8109 6.98303C13.2709 7.1365 13.2651 7.78918 12.8024 7.93439L9.55651 8.95308C9.40041 9.00207 9.27816 9.12432 9.22917 9.28042L8.21048 12.5263C8.06527 12.989 7.41259 12.9948 7.25912 12.5348Z" stroke="#121212" stroke-linecap="round" stroke-linejoin="round"/>
<path d="M9.3634 9.07495L12.8305 12.542" stroke="#121212" stroke-linecap="round" stroke-linejoin="round"/>
<path d="M0.852051 3.62549L2.52491 4.07373" stroke="#121212" stroke-linecap="round" stroke-linejoin="round"/>
<path d="M1.56238 7.65039L2.787 6.42577" stroke="#121212" stroke-linecap="round" stroke-linejoin="round"/>
<path d="M3.78821 0.689209L4.23645 2.36207" stroke="#121212" stroke-linecap="round" stroke-linejoin="round"/>
<path d="M7.81288 1.39966L6.58826 2.62428" stroke="#121212" stroke-linecap="round" stroke-linejoin="round"/>
</g>
<defs>
<clipPath id="clip0_10_1985">
<rect width="14" height="14" fill="white"/>
</clipPath>
</defs>
</svg>
